<?xml version="1.0" encoding="UTF-8" standalone="no"?>
<!-- Created with Inkscape (http://www.inkscape.org/) -->

<svg
   width="1920"
   height="1080"
   viewBox="0 0 1920 1080"
   version="1.1"
   id="svg5"
   xml:space="preserve"
   inkscape:version="1.3.2 (091e20ef0f, 2023-11-25, custom)"
   sodipodi:docname="next.svg"
   xmlns:inkscape="http://www.inkscape.org/namespaces/inkscape"
   xmlns:sodipodi="http://sodipodi.sourceforge.net/DTD/sodipodi-0.dtd"
   xmlns:xlink="http://www.w3.org/1999/xlink"
   xmlns="http://www.w3.org/2000/svg"
   xmlns:svg="http://www.w3.org/2000/svg"><sodipodi:namedview
     id="namedview7"
     pagecolor="#ffffff"
     bordercolor="#666666"
     borderopacity="1.0"
     inkscape:showpageshadow="2"
     inkscape:pageopacity="0.0"
     inkscape:pagecheckerboard="0"
     inkscape:deskcolor="#d1d1d1"
     inkscape:document-units="px"
     showgrid="false"
     inkscape:zoom="0.40272845"
     inkscape:cx="1060.2678"
     inkscape:cy="454.40047"
     inkscape:window-width="2256"
     inkscape:window-height="1504"
     inkscape:window-x="0"
     inkscape:window-y="0"
     inkscape:window-maximized="1"
     inkscape:current-layer="layer1" /><defs
     id="defs2"><rect
       x="509.51354"
       y="885.15119"
       width="1927.9579"
       height="204.71703"
       id="rect6614" /><rect
       x="574.97104"
       y="691.71262"
       width="1921.5357"
       height="219.29494"
       id="rect6608" /><rect
       x="1447.3548"
       y="377.48213"
       width="358.80318"
       height="207.39638"
       id="rect6602" /><rect
       x="98.954946"
       y="56.133034"
       width="771.93179"
       height="359.97781"
       id="rect6541" /><rect
       x="344.77099"
       y="622.65747"
       width="410.32912"
       height="166.37739"
       id="rect6535" /><linearGradient
       inkscape:collect="always"
       id="linearGradient877"><stop
         style="stop-color:#ea2959;stop-opacity:1;"
         offset="0"
         id="stop873" /><stop
         style="stop-color:#43bd92;stop-opacity:1;"
         offset="1"
         id="stop875" /></linearGradient><linearGradient
       inkscape:collect="always"
       xlink:href="#linearGradient877"
       id="linearGradient879"
       x1="921.15173"
       y1="-3.77953"
       x2="921.15173"
       y2="1083.7795"
       gradientUnits="userSpaceOnUse" /><rect
       x="2844.7327"
       y="745.05969"
       width="172.74524"
       height="21.115061"
       id="rect90" /><rect
       x="2337.7671"
       y="768.27173"
       width="24.785595"
       height="19.875988"
       id="rect89" /><rect
       x="2964.0237"
       y="197.35323"
       width="14.08282"
       height="88.447418"
       id="rect62" /><rect
       x="2663.9282"
       y="761.77264"
       width="195.35422"
       height="84.282967"
       id="rect56" /><rect
       x="2751.6372"
       y="677.1626"
       width="59.302578"
       height="49.014881"
       id="rect10" /><linearGradient
       inkscape:collect="always"
       xlink:href="#linearGradient877"
       id="linearGradient3"
       x1="0"
       y1="198.4252"
       x2="559.37006"
       y2="198.4252"
       gradientUnits="userSpaceOnUse" /></defs><g
     inkscape:label="Calque 1"
     inkscape:groupmode="layer"
     id="layer1"><rect
       style="fill:url(#linearGradient879);fill-opacity:1;stroke:#ffffff;stroke-width:7.55906;stroke-linecap:round;stroke-linejoin:bevel;stroke-miterlimit:3.2;paint-order:stroke fill markers"
       id="rect294"
       width="1920"
       height="1080"
       x="0"
       y="0"
       sodipodi:insensitive="true" /><text
       xml:space="preserve"
       id="text6539"
       style="font-style:normal;font-weight:normal;font-size:40px;line-height:1.25;font-family:sans-serif;text-align:center;white-space:pre;shape-inside:url(#rect6541);display:inline;fill:#000000;fill-opacity:1;stroke:none"
       transform="translate(473.9271,-3.2377964)"
       x="282.17621"
       y="0"><tspan
         x="201.4967"
         y="115.33281"
         id="tspan2"><tspan
           style="font-weight:900;font-size:64px;font-family:'Alegreya Sans';-inkscape-font-specification:'Alegreya Sans, Heavy';fill:#ffffff"
           id="tspan1">Prochaine conférence
</tspan></tspan><tspan
         x="468.82489"
         y="195.33281"
         id="tspan4"><tspan
           style="font-weight:900;font-size:64px;font-family:'Alegreya Sans';-inkscape-font-specification:'Alegreya Sans, Heavy';fill:#ffffff"
           id="tspan3">à
</tspan></tspan><tspan
         x="381.62494"
         y="275.33281"
         id="tspan6"><tspan
           style="font-weight:900;font-size:64px;font-family:'Alegreya Sans';-inkscape-font-specification:'Alegreya Sans, Heavy';fill:#ffffff"
           id="tspan5">$START</tspan></tspan></text><text
       xml:space="preserve"
       id="text6606"
       style="font-style:normal;font-variant:normal;font-weight:900;font-stretch:normal;font-size:64px;line-height:1.25;font-family:'Alegreya Sans';-inkscape-font-specification:'Alegreya Sans, Heavy';font-variant-ligatures:normal;font-variant-caps:normal;font-variant-numeric:normal;font-variant-east-asian:normal;text-align:center;white-space:pre;shape-inside:url(#rect6608);display:inline;fill:#ffffff;fill-opacity:1;stroke:none"
       transform="translate(-576.31427,71.890639)"
       x="89.503914"
       y="0"><tspan
         x="1445.2744"
         y="750.91289"
         id="tspan7">$TITLE
</tspan></text><text
       xml:space="preserve"
       id="text6612"
       style="font-style:normal;font-variant:normal;font-weight:normal;font-stretch:normal;font-size:48px;line-height:1.25;font-family:Cispeo;-inkscape-font-specification:'Cispeo, Normal';font-variant-ligatures:normal;font-variant-caps:normal;font-variant-numeric:normal;font-variant-east-asian:normal;text-align:center;white-space:pre;shape-inside:url(#rect6614);display:inline;fill:#ffffff;fill-opacity:1;stroke:none"
       transform="translate(-514.04419,0.498472)"
       x="122.18398"
       y="0"
       inkscape:label="text6612"><tspan
         x="1348.2122"
         y="929.55039"
         id="tspan8">$SPEAKERS</tspan></text><g
       id="g38"
       style="display:inline"
       transform="matrix(1.477716,0,0,1.477716,-3053.6002,281.28085)"><g
         id="g836-4-6"
         transform="matrix(0.49263781,0,0,0.49263781,2834.3255,94.50242)"
         style="display:inline"><path
           id="path12-4-2"
           transform="translate(-49.19,-150.12)"
           d="m 191.31,223.42 a 69.31,69.31 0 1 1 -69.31,-69.3 69.31,69.31 0 0 1 69.31,69.3 z"
           class="cls-4"
           inkscape:connector-curvature="0"
           style="fill:none;stroke:#ffffff;stroke-width:7px;stroke-linecap:round;stroke-linejoin:round;stroke-opacity:1" /><line
           id="line14-8-9"
           y2="107.95"
           x2="132.83"
           y1="38.650002"
           x1="12.79"
           class="cls-5"
           style="fill:none;stroke:#ffffff;stroke-width:7px;stroke-opacity:1" /><line
           id="line16-4-2"
           y2="142.60001"
           x2="72.809998"
           y1="4"
           x1="72.809998"
           class="cls-5"
           style="fill:none;stroke:#ffffff;stroke-width:7px;stroke-opacity:1" /><line
           id="line18-0-8"
           y2="41.029999"
           x2="131.59"
           y1="107.97"
           x1="12.79"
           class="cls-5"
           style="fill:none;stroke:#ffffff;stroke-width:7px;stroke-opacity:1" /></g><path
         class="cls-2"
         d="m 2771.534,76.760504 a 34.139809,34.139809 0 1 0 0,68.279606 c 18.8583,0 34.5487,-15.27178 34.5487,-34.13981 v -6.05945 l -0.3103,-28.080346 -32.9329,0.064 c -0.4286,-0.0296 -0.862,-0.0492 -1.2956,-0.064 z"
         id="path8-1-9"
         inkscape:connector-curvature="0"
         style="display:inline;fill:none;stroke:#ffffff;stroke-width:3.9411px;stroke-linecap:round;stroke-linejoin:round;stroke-opacity:1" /><path
         class="cls-1"
         d="m 2661.7499,70.921612 a 34.144727,34.144727 0 1 0 34.1448,34.139798 34.740818,34.740818 0 0 0 -0.5517,-6.059448 l -32.2925,6.754078 V 70.985652 c -0.4335,-0.0296 -0.8669,-0.0492 -1.3006,-0.064 z"
         id="path6-9-4"
         inkscape:connector-curvature="0"
         style="display:inline;fill:none;stroke:#ffffff;stroke-width:3.44847px;stroke-linecap:round;stroke-linejoin:round;stroke-opacity:1" /><path
         class="cls-3"
         d="m 2596.1094,124.24609 a 34.144727,34.144727 0 1 1 -10.0005,-24.13924 34.144727,34.144727 0 0 1 10.0005,24.13924 z"
         id="path10-5-2"
         inkscape:connector-curvature="0"
         style="display:inline;fill:none;stroke:#ffffff;stroke-width:3.44847px;stroke-linecap:round;stroke-linejoin:round;stroke-opacity:1" /><text
         xml:space="preserve"
         style="font-style:normal;font-variant:normal;font-weight:normal;font-stretch:normal;font-size:26.602px;line-height:0;font-family:'Alegreya Sans SC';-inkscape-font-specification:'Alegreya Sans SC';letter-spacing:-1.4251px;word-spacing:1.4251px;text-orientation:upright;display:inline;fill:#ffffff;fill-opacity:1;fill-rule:evenodd;stroke:#3e4a61;stroke-width:0;stroke-linejoin:round;stroke-miterlimit:5.4;paint-order:markers fill stroke"
         x="2619.3125"
         y="278.14368"
         id="text35-7"><tspan
           sodipodi:role="line"
           id="tspan35-1"
           x="2619.3125"
           y="278.14368"
           style="font-weight:bold;stroke-width:0">Journées du Logiciel Libre</tspan></text><g
         id="g5-8-1"
         transform="translate(2440.1678,-202.23524)"
         style="display:inline"><path
           d="m 73.657422,97.496953 q 0,2.36 -0.8,4.039997 -0.76,1.64 -2.56,2.88 -1.8,1.24 -4.96,2.32 l -1.84,-3.4 v -0.56 q 2.32,-1.16 3.24,-2.36 0.92,-1.199997 0.92,-3.079997 v -2.84 l -0.24,-13.28 -3.88,0.12 -0.4,-0.44 0.28,-4.32 h 10.52 l -0.36,17.28 z"
           style="font-style:normal;font-variant:normal;font-weight:800;font-stretch:normal;font-size:40px;line-height:1.25;font-family:'Alegreya Sans';-inkscape-font-specification:'Alegreya Sans Ultra-Bold';letter-spacing:0px;word-spacing:0px;display:inline;fill:#ffffff;fill-opacity:1;stroke:none"
           id="path1-00-9"
           inkscape:connector-curvature="0"
           transform="matrix(4.7912981,0,0,4.7912981,-188.5921,-36.843302)" /><path
           d="m 94.424297,97.056953 q 0,0.6 0.16,0.84 0.16,0.24 0.56,0.24 0.4,0 0.92,-0.16 l 0.4,0.36 -0.56,3.319997 q -1.28,0.92 -3.24,1.08 -2.64,-0.24 -3.48,-2.799997 h -0.28 q -1.76,1.719997 -3.92,2.759997 -3.88,0 -6.04,-2.52 -2.16,-2.519997 -2.16,-6.959997 0,-4.8 2.52,-7.32 2.56,-2.56 7.04,-2.56 1.16,0 2.16,0.2 l -0.12,-8.8 6.32,-0.44 -0.36,19.8 z m -8.36,-9.48 q -1.72,0 -2.56,1.08 -0.8,1.04 -0.8,3.48 0.04,5.76 3.2,5.76 1.4,0 2.68,-1.32 l 0.04,-1.88 -0.08,-6.52 q -1.32,-0.6 -2.48,-0.6 z"
           style="font-style:normal;font-variant:normal;font-weight:800;font-stretch:normal;font-size:40px;line-height:1.25;font-family:'Alegreya Sans';-inkscape-font-specification:'Alegreya Sans Ultra-Bold';letter-spacing:0px;word-spacing:0px;display:inline;fill:#ffffff;fill-opacity:1;stroke:none"
           id="path2-7-5"
           inkscape:connector-curvature="0"
           transform="matrix(4.7912981,0,0,4.7912981,-188.5921,-36.843302)" /><path
           d="M 114.23617,102.37695 H 99.716172 l 0.359998,-7.639997 -0.359998,-18.16 h 6.599998 l -0.36,17.52 0.12,2.96 h 8.2 l 0.4,0.48 z"
           style="font-style:normal;font-variant:normal;font-weight:800;font-stretch:normal;font-size:40px;line-height:1.25;font-family:'Alegreya Sans';-inkscape-font-specification:'Alegreya Sans Ultra-Bold';letter-spacing:0px;word-spacing:0px;display:inline;fill:#ffffff;fill-opacity:1;stroke:none"
           id="path3-8-0"
           inkscape:connector-curvature="0"
           transform="matrix(4.7912981,0,0,4.7912981,-188.5921,-36.843302)" /><path
           d="m 131.89242,102.37695 h -14.52 l 0.36,-7.639997 -0.36,-18.16 h 6.6 l -0.36,17.52 0.12,2.96 h 8.2 l 0.4,0.48 z"
           style="font-style:normal;font-variant:normal;font-weight:800;font-stretch:normal;font-size:40px;line-height:1.25;font-family:'Alegreya Sans';-inkscape-font-specification:'Alegreya Sans Ultra-Bold';letter-spacing:0px;word-spacing:0px;display:inline;fill:#ffffff;fill-opacity:1;stroke:none"
           id="path4-69-3"
           inkscape:connector-curvature="0"
           transform="matrix(4.7912981,0,0,4.7912981,-188.5921,-36.843302)" /></g></g></g></svg>
